{"installed":{"client_id":"62643959525-lshhuhqqirac4qpabrl178omq4uhckcg.apps.googleusercontent.com",
    "project_id":"quickstart-1572633958084",
    "auth_uri":"https://accounts.google.com/o/oauth2/auth",
    "token_uri":"https://oauth2.googleapis.com/token",
    "auth_provider_x509_cert_url":"https://www.googleapis.com/oauth2/v1/certs",
    "client_secret":"yzJygDY9w6ulqCawC-76gP-C",
    "redirect_uris":["urn:ietf:wg:oauth:2.0:oob","http://localhost"]}}